<svg width="17" height="30" viewBox="0 0 17 30" fill="none" xmlns="http://www.w3.org/2000/svg">
<path d="M12.5076 0L0 18.422L7.41285 17.4434L2.31804 30L16.367 11.578L7.66973 12.9664L12.5076 0Z" fill="url(#paint0_linear)"/>
<defs>
<linearGradient id="paint0_linear" x1="-2.63704" y1="25.0476" x2="17.4576" y2="4.95291" gradientUnits="userSpaceOnUse">
<stop/>
<stop offset="0.307292" stop-color="#0C0C0C"/>
<stop offset="0.504" stop-color="#787878"/>
<stop offset="0.625" stop-color="#1A1A1A"/>
<stop offset="1"/>
</linearGradient>
</defs>
</svg>
